…
### Returning raw data sources

The functions do just basic preprocessing, in order to return (by default) an object that well reflects the structure of the raw data source and returns all its records.

```{r}
habitatmap <- read_habitatmap()
habitatmap
#> Simple feature collection with 618147 features and 30 fields
#> geometry type:  MULTIPOLYGON
#> dimension:      XY
#> bbox:           xmin: 21991.38 ymin: 153058.3 xmax: 258871.8 ymax: 244027.3
#> epsg (SRID):    31370
#> proj4string:    +proj=lcc +lat_1=51.16666723333333 +lat_2=49.8333339 +lat_0=90 +lon_0=4.367486666666666 +x_0=150000.013 +y_0=5400088.438 +ellps=intl +towgs84=-106.8686,52.2978,-103.7239,0.3366,-0.457,1.8422,-1.2747 +units=m +no_defs
#> # A tibble: 618,147 x 31
#>    polygon_id eval  eenh1 eenh2 eenh3 eenh4 eenh5 eenh6 eenh7 eenh8 v1    v2   
#>  * <chr>      <fct> <chr> <chr> <chr> <chr> <chr> <chr> <chr> <chr> <chr> <chr>
#>  1 000098_v2… m     b     <NA>  <NA>  <NA>  <NA>  <NA>  <NA>  <NA>  <NA>  <NA> 
#>  2 000132_v2… m     bl    <NA>  <NA>  <NA>  <NA>  <NA>  <NA>  <NA>  <NA>  <NA> 
#>  3 000135_v2… m     bl    <NA>  <NA>  <NA>  <NA>  <NA>  <NA>  <NA>  <NA>  <NA> 
#>  4 000136_v2… m     bl    <NA>  <NA>  <NA>  <NA>  <NA>  <NA>  <NA>  <NA>  <NA> 
#>  5 000142_v2… m     bl    <NA>  <NA>  <NA>  <NA>  <NA>  <NA>  <NA>  <NA>  <NA> 
#>  6 000150_v2… m     bl    <NA>  <NA>  <NA>  <NA>  <NA>  <NA>  <NA>  <NA>  <NA> 
#>  7 000152_v2… m     bl    <NA>  <NA>  <NA>  <NA>  <NA>  <NA>  <NA>  <NA>  <NA> 
#>  8 000154_v2… m     bl    <NA>  <NA>  <NA>  <NA>  <NA>  <NA>  <NA>  <NA>  <NA> 
#>  9 000297_v2… m     bl    <NA>  <NA>  <NA>  <NA>  <NA>  <NA>  <NA>  <NA>  <NA> 
#> 10 000805_v2… m     bl    <NA>  <NA>  <NA>  <NA>  <NA>  <NA>  <NA>  <NA>  <NA> 
#> # … with 618,137 more rows, and 19 more variables: v3 <chr>, source <chr>,
#> #   info <chr>, bwk_label <chr>, hab1 <chr>, phab1 <int>, hab2 <chr>,
#> #   phab2 <int>, hab3 <chr>, phab3 <int>, hab4 <chr>, phab4 <int>, hab5 <chr>,
#> #   phab5 <int>, source_hab <chr>, source_phab <chr>, hab_legend <fct>,
#> #   area_m2 <dbl>, geometry <MULTIPOLYGON [m]>
```
…
The data sources `habitatstreams`, `habitatsprings` and `habitatquarries` have a straightforward data structure.
There was no need to generate derived data sources.
The meaning of their columns is described in the function documentation.
Not all function arguments are discussed in this vignette: do take the time to look at the documentation!

```{r}
habitatstreams <- read_habitatstreams()
habitatstreams
#> Simple feature collection with 560 features and 3 fields
#> geometry type:  LINESTRING
#> dimension:      XY
#> bbox:           xmin: 33097.92 ymin: 157529.6 xmax: 254039 ymax: 243444.6
#> epsg (SRID):    31370
#> proj4string:    +proj=lcc +lat_1=51.16666723333333 +lat_2=49.8333339 +lat_0=90 +lon_0=4.367486666666666 +x_0=150000.013 +y_0=5400088.438 +ellps=intl +towgs84=-106.8686,52.2978,-103.7239,0.3366,-0.457,1.8422,-1.2747 +units=m +no_defs
#> # A tibble: 560 x 4
#>    river_name   source_id type                                          geometry
#>  * <fct>        <fct>     <fct>                                 <LINESTRING [m]>
#>  1 WOLFPUTBEEK  VMM       3260  (127857.1 167681.2, 127854.9 167684.5, 127844 1…
#>  2 OUDE KALE    VMM       3260  (95737.01 196912.9, 95732.82 196912.4, 95710.38…
#>  3 VENLOOP      EcoInv    3260  (169352.7 209314.9, 169358.8 209290.5, 169326.2…
#>  4 VENLOOP      EcoInv    3260  (169633.6 209293.5, 169625 209289.2, 169594.4 2…
#>  5 KLEINE NETE  EcoInv    3260  (181087.1 208607.2, 181088.6 208608.1, 181089 2…
#>  6 KLEINE NETE  EcoInv    3260  (180037.4 208360.4, 180038.3 208377.5, 180038.3…
#>  7 KLEINE NETE  EcoInv    3260  (180520 208595.7, 180540.5 208607.4, 180541.2 2…
#>  8 KLEINE NETE  EcoInv    3260  (187379.9 209998.8, 187381.3 209998.5, 187381.6…
#>  9 RAAMDONKSEB… extrapol  3260  (183545.5 192409, 183541.9 192406.7, 183541.9 1…
#> 10 KLEINE NETE  EcoInv    3260  (183516.4 208261.7, 183567.3 208279.2, 183567.3…
#> # … with 550 more rows
```
…
```{r}
habitatsprings <- read_habitatsprings()
habitatsprings
#> Simple feature collection with 102 features and 9 fields
#> geometry type:  POINT
#> dimension:      XY
#> bbox:           xmin: 36407.89 ymin: 155249.7 xmax: 258371.1 ymax: 179732
#> projected CRS:  Belge 1972 / Belgian Lambert 72
#> # A tibble: 104 x 12
#>    point_id name  system_type code_orig type  certain unit_id area_m2  year
#>       <dbl> <chr> <fct>       <chr>     <fct> <lgl>     <dbl>   <dbl> <dbl>
#>  1        1 Stee… rivulet     7220      7220  TRUE          1      50  2014
#>  2        2 Stee… rivulet     7220      7220  TRUE          1      20  2014
#>  3        3 Duli… <NA>        7230      7230  TRUE         NA      NA  2014
#>  4        4 Kapi… <NA>        gh        <NA>  TRUE         NA      NA  2014
#>  5        5 Reme… rivulet     7220      7220  TRUE          2     200  2014
#>  6        6 Reme… rivulet     7220      7220  TRUE          2     500  2014
#>  7        7 Kest… unknown     7220,gh   7220  FALSE        32      NA    NA
#>  8        8 Krin… rivulet     7220      7220  TRUE          3     800  2014
#>  9        9 Bois… rivulet     7220      7220  TRUE          4      50  2014
#> 10       10 Kwin… mire        7220      7220  TRUE          5      10  2014
#> # … with 94 more rows, and 3 more variables: in_sac <lgl>, source <chr>,
#> #   geometry <POINT [m]>
```

Do note that both the `habitatsprings` and `habitatquarries` data sources also contain records which are no habitat type.
You can filter the habitat types by setting the `filter_hab` argument as `TRUE` (not shown).

```{r}
habitatquarries <- read_habitatquarries()
habitatquarries
#> Simple feature collection with 45 features and 6 fields
#> geometry type:  POLYGON
#> dimension:      XY
#> bbox:           xmin: 221427.3 ymin: 160393.5 xmax: 243211.1 ymax: 168965.1
#> projected CRS:  Belge 1972 / Belgian Lambert 72
#> # A tibble: 45 x 7
#>    polygon_id unit_id name  code_orig type  extra_reference
#>         <int>   <int> <chr> <chr>     <fct> <fct>          
#>  1          4       4 Aver… gh        <NA>  Lahaye 2018    
#>  2          6       6 Aver… 8310      8310  Lahaye 2018    
#>  3          5       5 Aver… gh        <NA>  Lahaye 2018    
#>  4         20      20 Cool… 8310      8310  Limburgs Lands…
#>  5         21      21 Cool… gh        <NA>  Limburgs Lands…
#>  6         29      29 Groe… 8310      8310  <NA>           
#>  7         31      31 Grot… 8310      8310  De Haan & Laha…
#>  8         37      37 Grot… 8310      8310  De Haan & Laha…
#>  9         24      24 Heni… 8310      8310  Dusar et al. 2…
#> 10         34      34 Heni… 8310      8310  Dusar et al. 2…
#> # … with 35 more rows, and 1 more variable: geom <POLYGON [m]>
```
…
```{r}
hms <- read_habitatmap_stdized()
```


```{r}
hms_pol <- hms$habitatmap_polygons
hms_pol
#> Simple feature collection with 77048 features and 2 fields
#> geometry type:  MULTIPOLYGON
#> dimension:      XY
#> bbox:           xmin: 22003.2 ymin: 153084.4 xmax: 258871.8 ymax: 243351.8
#> epsg (SRID):    31370
#> proj4string:    +proj=lcc +lat_1=51.16666723333333 +lat_2=49.8333339 +lat_0=90 +lon_0=4.367486666666666 +x_0=150000.013 +y_0=5400088.438 +ellps=intl +towgs84=-106.8686,52.2978,-103.7239,0.3366,-0.457,1.8422,-1.2747 +units=m +no_defs
#> # A tibble: 77,048 x 3
#>    polygon_id  description_orig                                             geom
#>  * <fct>       <chr>                                          <MULTIPOLYGON [m]>
#>  1 129420_v20… 60% x; 40% 6430_hf (((242838.5 161337.3, 242842.8 161324.7, 2428…
#>  2 130153_v20… 70% 9120_qb; 30% … (((150669.4 227248.6, 150668.1 227242.9, 1505…
#>  3 130815_v20… 70% gh; 30% 9160   (((258338.4 158696.1, 258336.5 158693.5, 2583…
#>  4 137826_v20… 100% 6430,rbbhf    (((181587.2 234938, 181613.1 234933.1, 181646…
#>  5 170624_v20… 100% rbbmr         (((145876.8 229686.8, 145701.7 229680.6, 1456…
#>  6 203261_v20… 70% gh; 30% rbbmr  (((117137.2 210307.9, 117136.3 210288.3, 1171…
#>  7 204352_v20… 80% gh; 20% rbbsp  (((116357.3 159278.3, 116340.5 159259.8, 1163…
#>  8 204376_v20… 90% gh; 10% rbbsg  (((116110.1 210545.5, 116102.4 210541.1, 1160…
#>  9 205188_v20… 60% rbbsp; 40% gh  (((232114.7 161594.5, 232122.7 161590.5, 2321…
#> 10 205291_v20… 70% gh; 30% rbbsp  (((191253.5 160641.5, 191254.8 160636.1, 1912…
#> # … with 77,038 more rows
```

```{r}
hms_occ <- hms$habitatmap_types
hms_occ
#> # A tibble: 98,737 x 5
#>    polygon_id   code_orig  phab certain type    
#>    <fct>        <chr>     <dbl> <lgl>   <fct>   
#>  1 000038_v2016 91E0_va     100 TRUE    91E0_va 
#>  2 000043_v2016 9130_end    100 TRUE    9130_end
#>  3 000132_v2016 9130_end    100 TRUE    9130_end
#>  4 000204_v2016 91E0_vn     100 TRUE    91E0_vn 
#>  5 000255_v2016 91E0_vc     100 TRUE    91E0_vc 
#>  6 000297_v2016 rbbsp        10 TRUE    rbbsp   
#>  7 000311_v2016 9130_end     70 TRUE    9130_end
#>  8 000311_v2016 rbbsp        30 TRUE    rbbsp   
#>  9 000390_v2016 91E0_vn      70 TRUE    91E0_vn 
#> 10 000390_v2016 91E0_va      30 TRUE    91E0_va 
#> # … with 98,727 more rows
```
Let's estimate the surface area per type, including uncertain occurrences of types and taking into account cover percentage per polygon (`phab`):

```{r}
hms_pol %>% 
  mutate(area = st_area(.)) %>% 
  st_drop_geometry %>% 
  inner_join(hms_occ, by = "polygon_id") %>% 
    # area of type within polygon:
  mutate(area_type = area * phab / 100) %>% 
  group_by(type) %>% 
  summarise(area = sum(area_type) %>% 
                    set_units("ha") %>% 
                    round(2)
            )
#> # A tibble: 101 x 2
#>    type        area
#>    <fct>       [ha]
#>  1 1130     5353.85
#>  2 1140     2096.20
#>  3 1310_pol   17.39
#>  4 1310_zk    43.08
#>  5 1310_zv    10.62
#>  6 1320        1.55
#>  7 1330_da   110.23
#>  8 1330_hpr  136.40
#>  9 2110       26.84
#> 10 2120      481.62
#> # … with 91 more rows
```
…
`read_habitatmap_terr()` behaves exactly the same way:

```{r}
hmt <- read_habitatmap_terr()
```

```{r}
hmt$habitatmap_terr_polygons
#> Simple feature collection with 68300 features and 4 fields
#> geometry type:  MULTIPOLYGON
#> dimension:      XY
#> bbox:           xmin: 22003.2 ymin: 153084.4 xmax: 258871.8 ymax: 243351.8
#> epsg (SRID):    31370
#> proj4string:    +proj=lcc +lat_1=51.16666723333333 +lat_2=49.8333339 +lat_0=90 +lon_0=4.367486666666666 +x_0=150000.013 +y_0=5400088.438 +ellps=intl +towgs84=-106.8686,52.2978,-103.7239,0.3366,-0.457,1.8422,-1.2747 +units=m +no_defs
#> # A tibble: 68,300 x 5
#>    polygon_id  description_orig  description source                         geom
#>  * <fct>       <chr>             <chr>       <fct>            <MULTIPOLYGON [m]>
#>  1 129420_v20… 60% x; 40% 6430_… 60% x; 40%… habita… (((242838.5 161337.3, 2428…
#>  2 130153_v20… 70% 9120_qb; 30%… 70% 9120_q… habita… (((150669.4 227248.6, 1506…
#>  3 130815_v20… 70% gh; 30% 9160  70% gh; 30… habita… (((258338.4 158696.1, 2583…
#>  4 137826_v20… 100% 6430,rbbhf   100% 6430_… habita… (((181587.2 234938, 181613…
#>  5 170624_v20… 100% rbbmr        100% rbbmr  habita… (((145876.8 229686.8, 1457…
#>  6 203261_v20… 70% gh; 30% rbbmr 70% gh; 30… habita… (((117137.2 210307.9, 1171…
#>  7 204352_v20… 80% gh; 20% rbbsp 80% gh; 20… habita… (((116357.3 159278.3, 1163…
#>  8 204376_v20… 90% gh; 10% rbbsg 90% gh; 10… habita… (((116110.1 210545.5, 1161…
#>  9 205188_v20… 60% rbbsp; 40% gh 60% rbbsp;… habita… (((232114.7 161594.5, 2321…
#> 10 205291_v20… 70% gh; 30% rbbsp 70% gh; 30… habita… (((191253.5 160641.5, 1912…
#> # … with 68,290 more rows
```

```{r}
hmt$habitatmap_terr_types
#> # A tibble: 87,513 x 6
#>    polygon_id   code_orig  phab certain type     source            
#>    <fct>        <chr>     <dbl> <lgl>   <fct>    <fct>             
#>  1 000038_v2016 91E0_va     100 TRUE    91E0_va  habitatmap_stdized
#>  2 000043_v2016 9130_end    100 TRUE    9130_end habitatmap_stdized
#>  3 000132_v2016 9130_end    100 TRUE    9130_end habitatmap_stdized
#>  4 000204_v2016 91E0_vn     100 TRUE    91E0_vn  habitatmap_stdized
#>  5 000255_v2016 91E0_vc     100 TRUE    91E0_vc  habitatmap_stdized
#>  6 000297_v2016 rbbsp        10 TRUE    rbbsp    habitatmap_stdized
#>  7 000311_v2016 9130_end     70 TRUE    9130_end habitatmap_stdized
#>  8 000311_v2016 rbbsp        30 TRUE    rbbsp    habitatmap_stdized
#>  9 000390_v2016 91E0_vn      70 TRUE    91E0_vn  habitatmap_stdized
#> 10 000390_v2016 91E0_va      30 TRUE    91E0_va  habitatmap_stdized
#> # … with 87,503 more rows
```
…
A similar story, this time for polygons that (could) have aquatic types:

```{r}
wsh <- read_watersurfaces_hab()
```

```{r}
wsh$watersurfaces_polygons
#> Simple feature collection with 2947 features and 4 fields
#> geometry type:  MULTIPOLYGON
#> dimension:      XY
#> bbox:           xmin: 22546.57 ymin: 159273.1 xmax: 253928.1 ymax: 242960.1
#> epsg (SRID):    31370
#> proj4string:    +proj=lcc +lat_1=51.16666723333333 +lat_2=49.8333339 +lat_0=90 +lon_0=4.367486666666666 +x_0=150000.013 +y_0=5400088.438 +ellps=intl +towgs84=-106.8686,52.2978,-103.7239,0.3366,-0.457,1.8422,-1.2747 +units=m +no_defs
#> # A tibble: 2,947 x 5
#>    polygon_id polygon_id_ws polygon_id_habi… description_orig
#>  * <fct>      <fct>         <fct>            <chr>           
#>  1 ANTANT0082 ANTANT0082    596466_v2014     60% 3150; 20% r…
#>  2 ANTANT0251 ANTANT0251    113978_v2014     100% 3150       
#>  3 ANTANT0253 ANTANT0253    111606_v2014     100% 3150       
#>  4 ANTANT0297 ANTANT0297    409153_v2014+40… 85% 3140; 15% 3…
#>  5 ANTANT0315 ANTANT0315    519082_v2018     100% 3140       
#>  6 ANTANT0319 ANTANT0319    601958_v2014     100% 3150,gh    
#>  7 ANTANT0381 ANTANT0381    644003_v2014     85% gh; 15% 3140
#>  8 ANTANT0383 ANTANT0383    631879_v2014+59… 50% 3150; 40% r…
#>  9 ANTANT0384 ANTANT0384    644003_v2014     85% gh; 15% 3140
#> 10 ANTANT0434 ANTANT0434    537902_v2018     100% 3140       
#> # … with 2,937 more rows, and 1 more variable: geom <MULTIPOLYGON [m]>
```

```{r}
wsh$watersurfaces_types
#> # A tibble: 3,302 x 4
#>    polygon_id code_orig certain type 
#>    <fct>      <chr>     <lgl>   <fct>
#>  1 ANTANT0082 3150      TRUE    3150 
#>  2 ANTANT0251 3150      TRUE    3150 
#>  3 ANTANT0253 3150      TRUE    3150 
#>  4 ANTANT0297 3140      TRUE    3140 
#>  5 ANTANT0297 3150      TRUE    3150 
#>  6 ANTANT0315 3140      TRUE    3140 
#>  7 ANTANT0319 3150,gh   FALSE   3150 
#>  8 ANTANT0381 3140      TRUE    3140 
#>  9 ANTANT0383 3150      TRUE    3150 
#> 10 ANTANT0384 3140      TRUE    3140 
#> # … with 3,292 more rows
```
…
