Expand a 'type' column in a dataframe — expand_types • n2khab
…
library(dplyr)
#> 
#> Attaching package: ‘dplyr’
#> The following objects are masked from ‘package:stats’:
#> 
#>     filter, lag
#> The following objects are masked from ‘package:base’:
#> 
#>     intersect, setdiff, setequal, union
x <-
    read_scheme_types() %>%
    filter(scheme == "GW_05.1_terr")
expand_types(x)
#> # A tibble: 61 x 5
#>    scheme    type    typegroup      typegroup_name             typegroup_shortn…
#>    <fct>     <fct>   <fct>          <fct>                      <fct>            
#>  1 GW_05.1_… 1310_p… GW_05.1_terr_… types from moderately wet… moderately wet   
#>  2 GW_05.1_… 1310_zk GW_05.1_terr_… types from very wet envir… very wet         
#>  3 GW_05.1_… 1310_zv GW_05.1_terr_… types from very wet envir… very wet         
#>  4 GW_05.1_… 1320    GW_05.1_terr_… types from very wet envir… very wet         
#>  5 GW_05.1_… 1330_da GW_05.1_terr_… types from very wet envir… very wet         
#>  6 GW_05.1_… 1330_h… GW_05.1_terr_… types from moderately wet… moderately wet   
#>  7 GW_05.1_… 2130_h… GW_05.1_terr_… types from dry environmen… dry              
#>  8 GW_05.1_… 2130_hd GW_05.1_terr_… types from dry environmen… dry              
#>  9 GW_05.1_… 2160    GW_05.1_terr_… types from moist environm… moist            
#> 10 GW_05.1_… 2170    GW_05.1_terr_… types from moist environm… moist            
#> # … with 51 more rows
expand_types(x, strict = FALSE)
#> # A tibble: 62 x 5
#>    scheme    type    typegroup      typegroup_name             typegroup_shortn…
#>    <fct>     <fct>   <fct>          <fct>                      <fct>            
#>  1 GW_05.1_… 1310_p… GW_05.1_terr_… types from moderately wet… moderately wet   
#>  2 GW_05.1_… 1310_zk GW_05.1_terr_… types from very wet envir… very wet         
#>  3 GW_05.1_… 1310_zv GW_05.1_terr_… types from very wet envir… very wet         
#>  4 GW_05.1_… 1320    GW_05.1_terr_… types from very wet envir… very wet         
#>  5 GW_05.1_… 1330_da GW_05.1_terr_… types from very wet envir… very wet         
#>  6 GW_05.1_… 1330_h… GW_05.1_terr_… types from moderately wet… moderately wet   
#>  7 GW_05.1_… 2130_h… GW_05.1_terr_… types from dry environmen… dry              
#>  8 GW_05.1_… 2130_hd GW_05.1_terr_… types from dry environmen… dry              
#>  9 GW_05.1_… 2160    GW_05.1_terr_… types from moist environm… moist            
#> 10 GW_05.1_… 2170    GW_05.1_terr_… types from moist environm… moist            
#> # … with 52 more rows

x <-
    read_scheme_types() %>%
    filter(scheme == "GW_05.1_terr") %>%
    group_by(typegroup)
expand_types(x)
#> # A tibble: 58 x 5
#> # Groups:   typegroup [5]
#>    scheme    type    typegroup      typegroup_name             typegroup_shortn…
#>    <fct>     <fct>   <fct>          <fct>                      <fct>            
#>  1 GW_05.1_… 1310_p… GW_05.1_terr_… types from moderately wet… moderately wet   
#>  2 GW_05.1_… 1330_h… GW_05.1_terr_… types from moderately wet… moderately wet   
#>  3 GW_05.1_… 4010    GW_05.1_terr_… types from moderately wet… moderately wet   
#>  4 GW_05.1_… rbbsm   GW_05.1_terr_… types from moderately wet… moderately wet   
#>  5 GW_05.1_… 6410_mo GW_05.1_terr_… types from moderately wet… moderately wet   
#>  6 GW_05.1_… 6410_ve GW_05.1_terr_… types from moderately wet… moderately wet   
#>  7 GW_05.1_… 6430_hf GW_05.1_terr_… types from moderately wet… moderately wet   
#>  8 GW_05.1_… 6430_hw GW_05.1_terr_… types from moderately wet… moderately wet   
#>  9 GW_05.1_… rbbhc   GW_05.1_terr_… types from moderately wet… moderately wet   
#> 10 GW_05.1_… rbbhf   GW_05.1_terr_… types from moderately wet… moderately wet   
#> # … with 48 more rows
expand_types(x, use_grouping = FALSE) # equals above example
#> # A tibble: 61 x 5
#> # Groups:   typegroup [5]
#>    scheme    type    typegroup      typegroup_name             typegroup_shortn…
#>    <fct>     <fct>   <fct>          <fct>                      <fct>            
#>  1 GW_05.1_… 1310_p… GW_05.1_terr_… types from moderately wet… moderately wet   
#>  2 GW_05.1_… 1310_zk GW_05.1_terr_… types from very wet envir… very wet         
#>  3 GW_05.1_… 1310_zv GW_05.1_terr_… types from very wet envir… very wet         
#>  4 GW_05.1_… 1320    GW_05.1_terr_… types from very wet envir… very wet         
#>  5 GW_05.1_… 1330_da GW_05.1_terr_… types from very wet envir… very wet         
#>  6 GW_05.1_… 1330_h… GW_05.1_terr_… types from moderately wet… moderately wet   
#>  7 GW_05.1_… 2130_h… GW_05.1_terr_… types from dry environmen… dry              
#>  8 GW_05.1_… 2130_hd GW_05.1_terr_… types from dry environmen… dry              
#>  9 GW_05.1_… 2160    GW_05.1_terr_… types from moist environm… moist            
#> 10 GW_05.1_… 2170    GW_05.1_terr_… types from moist environm… moist            
#> # … with 51 more rows
…
