Return the 'env_pressures' data source as a tibble with human-readable attributes — read_env_pressures • n2khab
…
    See also

    env_pressures

Other reading functions for n2khab-referencelists: 
read_namelist(),
read_scheme_types(),
read_schemes(),
read_types()

    Examples

read_env_pressures()
#> # A tibble: 35 x 6
#>    ep_code ep_abbrev   ep_name               ep_class ep_class_name  explanation
#>    <fct>   <fct>       <fct>                 <fct>    <fct>          <chr>      
#>  1 ep_011  011_struct  11 Change of physica… ep_clas… 1 Physical mo… <NA>       
#>  2 ep_012  012_soildy… 12 Soil dynamics inc… ep_clas… 1 Physical mo… <NA>       
#>  3 ep_013  013_soildy… 13 Soil dynamics dec… ep_clas… 1 Physical mo… <NA>       
#>  4 ep_014  014_aqconn  14 Aquatic connectiv… ep_clas… 1 Physical mo… <NA>       
#>  5 ep_015  015_terrco… 15 Terrestrial conne… ep_clas… 1 Physical mo… <NA>       
#>  6 ep_03.1 03.1_eutr_… 3.1 Eutrophication t… ep_clas… 3 Eutrophicat… <NA>       
#>  7 ep_03.2 03.2_eutr_… 3.2 Eutrophication t… ep_clas… 3 Eutrophicat… <NA>       
#>  8 ep_03.3 03.3_eutr_… 3.3 Eutrophication t… ep_clas… 3 Eutrophicat… <NA>       
#>  9 ep_03.4 03.4_eutr_… 3.4 Eutrophication t… ep_clas… 3 Eutrophicat… <NA>       
#> 10 ep_04.1 04.1_acidi… 4.1 Acidification th… ep_clas… 4 Acidificati… <NA>       
#> # … with 25 more rows
read_env_pressures(lang = "nl")
#> # A tibble: 35 x 6
#>    ep_code ep_abbrev  ep_name          ep_class ep_class_name explanation       
#>    <fct>   <fct>      <fct>            <fct>    <fct>         <chr>             
#>  1 ep_011  011_struct 11 Aanpassing v… ep_clas… 1 Ruimtebesl… "Aard van het sub…
#>  2 ep_012  012_boddy… 12 Toename bode… ep_clas… 1 Ruimtebesl… "Een toename resp…
#>  3 ep_013  013_boddy… 13 Afname bodem… ep_clas… 1 Ruimtebesl… "Een toename resp…
#>  4 ep_014  014_aqconn 14 Verlies van … ep_clas… 1 Ruimtebesl… "Barrières en iso…
#>  5 ep_015  015_terrc… 15 Verlies van … ep_clas… 1 Ruimtebesl… "Barrières en iso…
#>  6 ep_03.1 03.1_eutr… 3.1 Eutrofiërin… ep_clas… 3 Eutrofiëri… "Voor de levensge…
#>  7 ep_03.2 03.2_eutr… 3.2 Eutrofiërin… ep_clas… 3 Eutrofiëri… "Voor de levensge…
#>  8 ep_03.3 03.3_eutr… 3.3 Eutrofiërin… ep_clas… 3 Eutrofiëri… "Voor de levensge…
#>  9 ep_03.4 03.4_eutr… 3.4 Eutrofiërin… ep_clas… 3 Eutrofiëri… "Voor de levensge…
#> 10 ep_04.1 04.1_verz… 4.1 Verzuring v… ep_clas… 4 Verzuring   "Daling van de pH…
#> # … with 25 more rows
…
