Return the 'scheme_types' data source as a tibble — read_scheme_types • n2khab
…
    See also

    scheme_types

Other reading functions for n2khab-referencelists: 
read_env_pressures(),
read_namelist(),
read_schemes(),
read_types()

    Examples

read_scheme_types()
#> # A tibble: 763 × 5
#>    scheme   type     typegroup       typegroup_name             typegroup_short…
#>    <fct>    <fct>    <fct>           <fct>                      <fct>           
#>  1 ATM_03.1 1310_pol ATM_03.1_group2 sensitive non-forest types sensitive non-f…
#>  2 ATM_03.1 1310_zk  ATM_03.1_group2 sensitive non-forest types sensitive non-f…
#>  3 ATM_03.1 1310_zv  ATM_03.1_group2 sensitive non-forest types sensitive non-f…
#>  4 ATM_03.1 1320     ATM_03.1_group2 sensitive non-forest types sensitive non-f…
#>  5 ATM_03.1 1330_da  ATM_03.1_group2 sensitive non-forest types sensitive non-f…
#>  6 ATM_03.1 1330_hpr ATM_03.1_group2 sensitive non-forest types sensitive non-f…
#>  7 ATM_03.1 2110     ATM_03.1_group2 sensitive non-forest types sensitive non-f…
#>  8 ATM_03.1 2120     ATM_03.1_group2 sensitive non-forest types sensitive non-f…
#>  9 ATM_03.1 2130_had ATM_03.1_group1 very sensitive non-forest… very sensitive …
#> 10 ATM_03.1 2130_hd  ATM_03.1_group1 very sensitive non-forest… very sensitive …
#> # … with 753 more rows
read_scheme_types(lang = "nl")
#> # A tibble: 763 × 5
#>    scheme   type     typegroup       typegroup_name             typegroup_short…
#>    <fct>    <fct>    <fct>           <fct>                      <fct>           
#>  1 ATM_03.1 1310_pol ATM_03.1_group2 gevoelige niet-bostypes    gevoelig niet-b…
#>  2 ATM_03.1 1310_zk  ATM_03.1_group2 gevoelige niet-bostypes    gevoelig niet-b…
#>  3 ATM_03.1 1310_zv  ATM_03.1_group2 gevoelige niet-bostypes    gevoelig niet-b…
#>  4 ATM_03.1 1320     ATM_03.1_group2 gevoelige niet-bostypes    gevoelig niet-b…
#>  5 ATM_03.1 1330_da  ATM_03.1_group2 gevoelige niet-bostypes    gevoelig niet-b…
#>  6 ATM_03.1 1330_hpr ATM_03.1_group2 gevoelige niet-bostypes    gevoelig niet-b…
#>  7 ATM_03.1 2110     ATM_03.1_group2 gevoelige niet-bostypes    gevoelig niet-b…
#>  8 ATM_03.1 2120     ATM_03.1_group2 gevoelige niet-bostypes    gevoelig niet-b…
#>  9 ATM_03.1 2130_had ATM_03.1_group1 zeer gevoelige niet-bosty… zeer gevoelig n…
#> 10 ATM_03.1 2130_hd  ATM_03.1_group1 zeer gevoelige niet-bosty… zeer gevoelig n…
#> # … with 753 more rows
…
