Return the 'types' data source as a tibble with names & shortnames — read_types • n2khab
…
    See also

    types

Other reading functions for n2khab-referencelists: 
read_env_pressures(),
read_namelist(),
read_scheme_types(),
read_schemes()

    Examples

read_types()
#> # A tibble: 111 x 25
#>    type  typelevel main_type type_name type_shortname typeclass typeclass_name
#>    <fct> <fct>     <fct>     <fct>     <fct>          <fct>     <fct>         
#>  1 1130  main_type 1130      Estuaries Estuaries      CH        Coastal and h…
#>  2 1140  main_type 1140      Mudflats… Mud- and sand… CH        Coastal and h…
#>  3 1310  main_type 1310      Salicorn… Brackish pion… CH        Coastal and h…
#>  4 1310… subtype   1310      Salicorn… Salicornia ha… CH        Coastal and h…
#>  5 1310… subtype   1310      Low salt… Low saltmarsh… CH        Coastal and h…
#>  6 1310… subtype   1310      High sal… High saltmars… CH        Coastal and h…
#>  7 1320  main_type 1320      Spartina… Spartina swar… CH        Coastal and h…
#>  8 1330  main_type 1330      Atlantic… Atlantic salt… CH        Coastal and h…
#>  9 1330… subtype   1330      Saltmars… Saltmarshes d… CH        Coastal and h…
#> 10 1330… subtype   1330      Halophyt… Halophytic gr… CH        Coastal and h…
#> # … with 101 more rows, and 18 more variables: hydr_class <fct>,
#> #   hydr_class_name <fct>, hydr_class_shortname <fct>, groundw_dep <fct>,
#> #   groundw_dep_name <fct>, groundw_dep_shortname <fct>, flood_dep <fct>,
#> #   flood_dep_name <fct>, flood_dep_shortname <fct>, tag_1 <chr>,
#> #   tag_1_name <chr>, tag_1_shortname <chr>, tag_2 <chr>, tag_2_name <chr>,
#> #   tag_2_shortname <chr>, tag_3 <chr>, tag_3_name <chr>, tag_3_shortname <chr>
read_types(lang = "nl")
#> # A tibble: 111 x 25
#>    type  typelevel main_type type_name type_shortname typeclass typeclass_name
#>    <fct> <fct>     <fct>     <fct>     <fct>          <fct>     <fct>         
#>  1 1130  main_type 1130      Estuaria  estuaria       CH        Kust- en zilt…
#>  2 1140  main_type 1140      Bij eb d… bij eb droogv… CH        Kust- en zilt…
#>  3 1310  main_type 1310      Eenjarig… zilte pionier… CH        Kust- en zilt…
#>  4 1310… subtype   1310      binnendi… binnendijkse … CH        Kust- en zilt…
#>  5 1310… subtype   1310      buitendi… buitendijks l… CH        Kust- en zilt…
#>  6 1310… subtype   1310      buitendi… buitendijks h… CH        Kust- en zilt…
#>  7 1320  main_type 1320      Schorren… schorren met … CH        Kust- en zilt…
#>  8 1330  main_type 1330      Atlantis… Atlantische s… CH        Kust- en zilt…
#>  9 1330… subtype   1330      buitendi… buitendijkse … CH        Kust- en zilt…
#> 10 1330… subtype   1330      binnendi… zilte graslan… CH        Kust- en zilt…
#> # … with 101 more rows, and 18 more variables: hydr_class <fct>,
#> #   hydr_class_name <fct>, hydr_class_shortname <fct>, groundw_dep <fct>,
#> #   groundw_dep_name <fct>, groundw_dep_shortname <fct>, flood_dep <fct>,
#> #   flood_dep_name <fct>, flood_dep_shortname <fct>, tag_1 <chr>,
#> #   tag_1_name <chr>, tag_1_shortname <chr>, tag_2 <chr>, tag_2_name <chr>,
#> #   tag_2_shortname <chr>, tag_3 <chr>, tag_3_name <chr>, tag_3_shortname <chr>
…
