Return the 'namelist' data source as a tibble — read_namelist • n2khab
…
    See also

    namelist

Other reading functions for n2khab-referencelists: 
read_env_pressures(),
read_scheme_types(),
read_schemes(),
read_types()

    Examples

read_namelist()
#> # A tibble: 282 x 4
#>    code    lang  name                                    shortname              
#>    <chr>   <chr> <chr>                                   <chr>                  
#>  1 1130    en    Estuaries                               Estuaries              
#>  2 1140    en    Mudflats and sandflats not covered by … Mud- and sandflats     
#>  3 1310    en    Salicornia and other annuals colonizin… Brackish pioneer habit…
#>  4 1310_p… en    Salicornia habitats dike inward         Salicornia habitats di…
#>  5 1310_zk en    Low saltmarshes Salicornia habitats di… Low saltmarshes dike o…
#>  6 1310_zv en    High saltmarshes Saginion habitats dik… High saltmarshes dike …
#>  7 1320    en    Spartina swards (Spartinion maritimae)  Spartina swards        
#>  8 1330    en    Atlantic salt meadows (Glauco-Puccinel… Atlantic salt meadows  
#>  9 1330_da en    Saltmarshes dike outward                Saltmarshes dike outwa…
#> 10 1330_h… en    Halophytic grasslands dike inward       Halophytic grassland   
#> # … with 272 more rows
read_namelist(lang = "nl")
#> # A tibble: 295 x 4
#>    code    lang  name                                       shortname           
#>    <chr>   <chr> <chr>                                      <chr>               
#>  1 1130    nl    Estuaria                                   estuaria            
#>  2 1140    nl    Bij eb droogvallende slikwadden en zandpl… bij eb droogvallend…
#>  3 1310    nl    Eenjarige pioniersvegetaties van slik- en… zilte pionierbegroe…
#>  4 1310_p… nl    binnendijks gelegen zeekraalvegetaties     binnendijkse zeekra…
#>  5 1310_zk nl    buitendijks laag schor met zeekraalvegeta… buitendijks laag sc…
#>  6 1310_zv nl    buitendijks hoog schor met zeevetmuurvege… buitendijks hoog sc…
#>  7 1320    nl    Schorren met slijkgrasvegetatie (Spartini… schorren met slijkg…
#>  8 1330    nl    Atlantische schorren (Glauco-Puccinelliet… Atlantische schorren
#>  9 1330_da nl    buitendijkse schorren                      buitendijkse schor  
#> 10 1330_h… nl    binnendijkse zilte vegetaties: zilte gras… zilte graslanden    
#> # … with 285 more rows
…
