Return the 'schemes' data source as a tibble with names & shortnames — read_schemes • n2khab
…
    See also

    schemes

Other reading functions for n2khab-referencelists: 
read_env_pressures(),
read_namelist(),
read_scheme_types(),
read_types()

    Examples

read_schemes()
#> # A tibble: 62 x 25
#>    scheme scheme_name scheme_shortname programme programme_name attribute_1
#>    <fct>  <fct>       <fct>            <fct>     <fct>          <fct>      
#>  1 ATM_0… Atmospheri… ATM: 03.1_eutr_… MNE       Monitoring pr… ATM        
#>  2 ATM_0… Atmospheri… ATM: 04.1_acidi… MNE       Monitoring pr… ATM        
#>  3 ATM_0… Atmospheri… ATM: 08.1_poll_… MNE       Monitoring pr… ATM        
#>  4 ATM_1… Atmospheri… ATM: 101_clim_d… MNE       Monitoring pr… ATM        
#>  5 ATM_1… Atmospheri… ATM: 102_clim_w… MNE       Monitoring pr… ATM        
#>  6 GW_03… Groundwate… GW: 03.3_eutr_gw MNE       Monitoring pr… GW         
#>  7 GW_04… Groundwate… GW: 04.2_acidif… MNE       Monitoring pr… GW         
#>  8 GW_05… Groundwate… GW: 05.1_des_gw… MNE       Monitoring pr… GW         
#>  9 GW_05… Groundwate… GW: 05.1_des_gw… MNE       Monitoring pr… GW         
#> 10 GW_05… Groundwate… GW: 05.1_des_gw… MNE       Monitoring pr… GW         
#> # … with 52 more rows, and 19 more variables: attribute_2 <fct>,
#> #   attribute_3 <fct>, attribute_1_name <fct>, attribute_1_shortname <fct>,
#> #   attribute_2_name <fct>, attribute_2_shortname <fct>,
#> #   attribute_3_name <fct>, attribute_3_shortname <fct>,
#> #   spatial_restriction <chr>, notes <chr>, tag_1 <chr>, tag_2 <chr>,
#> #   tag_3 <chr>, tag_1_name <chr>, tag_1_shortname <chr>, tag_2_name <chr>,
#> #   tag_2_shortname <chr>, tag_3_name <chr>, tag_3_shortname <chr>
read_schemes(lang = "nl")
#> # A tibble: 62 x 25
#>    scheme scheme_name scheme_shortname programme programme_name attribute_1
#>    <fct>  <fct>       <fct>            <fct>     <fct>          <fct>      
#>  1 ATM_0… Atmosferis… ATM: 03.1_eutr_… MNE       Monitoringpro… ATM        
#>  2 ATM_0… Atmosferis… ATM: 04.1_verzu… MNE       Monitoringpro… ATM        
#>  3 ATM_0… Atmosferis… ATM: 08.1_veron… MNE       Monitoringpro… ATM        
#>  4 ATM_1… Atmosferis… ATM: 101_klim_d… MNE       Monitoringpro… ATM        
#>  5 ATM_1… Atmosferis… ATM: 102_klim_n… MNE       Monitoringpro… ATM        
#>  6 GW_03… Grondwater… GW: 03.3_eutr_gw MNE       Monitoringpro… GW         
#>  7 GW_04… Grondwater… GW: 04.2_verzu_… MNE       Monitoringpro… GW         
#>  8 GW_05… Grondwater… GW: 05.1_verdro… MNE       Monitoringpro… GW         
#>  9 GW_05… Grondwater… GW: 05.1_verdro… MNE       Monitoringpro… GW         
#> 10 GW_05… Grondwater… GW: 05.1_verdro… MNE       Monitoringpro… GW         
#> # … with 52 more rows, and 19 more variables: attribute_2 <fct>,
#> #   attribute_3 <fct>, attribute_1_name <fct>, attribute_1_shortname <fct>,
#> #   attribute_2_name <fct>, attribute_2_shortname <fct>,
#> #   attribute_3_name <fct>, attribute_3_shortname <fct>,
#> #   spatial_restriction <chr>, notes <chr>, tag_1 <chr>, tag_2 <chr>,
#> #   tag_3 <chr>, tag_1_name <chr>, tag_1_shortname <chr>, tag_2_name <chr>,
#> #   tag_2_shortname <chr>, tag_3_name <chr>, tag_3_shortname <chr>
…
