Reference lists and using them • n2khab
…
Reading functions of the n2khab package return the reference lists as tibbles, with appropriate text from namelist added. A tibble is a dataframe that makes working in the tidyverse a little easier.

Multilanguage support

In the data source on disk, each item envisaged by a reference list is always represented by a code (sometimes a combination of two codes) – not a name. The same approach is often followed for other attributes (use of codes, not names or descriptions). However for some variables English has been used directly in the data source.

The splitting between code and explanatory names, shortnames and other language-dependent text made it possible to store the latter in multiple languages in namelist, in the variables name and shortname. Currently, this list systematically provides English and Dutch text for each code. This can be extended in future versions of the package (not necessarily in a systematic way).

Get the reference lists in R

Making the types reference list available in the R environment is as easy as:

read_types()
#> # A tibble: 111 x 25
#>    type  typelevel main_type type_name type_shortname typeclass typeclass_name
#>    <fct> <fct>     <fct>     <fct>     <fct>          <fct>     <fct>         
#>  1 1130  main_type 1130      Estuaries Estuaries      CH        Coastal and h…
#>  2 1140  main_type 1140      Mudflats… Mud- and sand… CH        Coastal and h…
#>  3 1310  main_type 1310      Salicorn… Brackish pion… CH        Coastal and h…
#>  4 1310… subtype   1310      Salicorn… Salicornia ha… CH        Coastal and h…
#>  5 1310… subtype   1310      Low salt… Low saltmarsh… CH        Coastal and h…
#>  6 1310… subtype   1310      High sal… High saltmars… CH        Coastal and h…
#>  7 1320  main_type 1320      Spartina… Spartina swar… CH        Coastal and h…
#>  8 1330  main_type 1330      Atlantic… Atlantic salt… CH        Coastal and h…
#>  9 1330… subtype   1330      Saltmars… Saltmarshes d… CH        Coastal and h…
#> 10 1330… subtype   1330      Halophyt… Halophytic gr… CH        Coastal and h…
#> # … with 101 more rows, and 18 more variables: hydr_class <fct>,
#> #   hydr_class_name <fct>, hydr_class_shortname <fct>, groundw_dep <fct>,
#> #   groundw_dep_name <fct>, groundw_dep_shortname <fct>, flood_dep <fct>,
#> #   flood_dep_name <fct>, flood_dep_shortname <fct>, tag_1 <chr>,
#> #   tag_1_name <chr>, tag_1_shortname <chr>, tag_2 <chr>, tag_2_name <chr>,
#> #   tag_2_shortname <chr>, tag_3 <chr>, tag_3_name <chr>, tag_3_shortname <chr>

By default, English is used. But, you can also choose to get a tibble in another language:

read_types(lang = "nl")
#> # A tibble: 111 x 25
#>    type  typelevel main_type type_name type_shortname typeclass typeclass_name
#>    <fct> <fct>     <fct>     <fct>     <fct>          <fct>     <fct>         
#>  1 1130  main_type 1130      Estuaria  estuaria       CH        Kust- en zilt…
#>  2 1140  main_type 1140      Bij eb d… bij eb droogv… CH        Kust- en zilt…
#>  3 1310  main_type 1310      Eenjarig… zilte pionier… CH        Kust- en zilt…
#>  4 1310… subtype   1310      binnendi… binnendijkse … CH        Kust- en zilt…
#>  5 1310… subtype   1310      buitendi… buitendijks l… CH        Kust- en zilt…
#>  6 1310… subtype   1310      buitendi… buitendijks h… CH        Kust- en zilt…
#>  7 1320  main_type 1320      Schorren… schorren met … CH        Kust- en zilt…
#>  8 1330  main_type 1330      Atlantis… Atlantische s… CH        Kust- en zilt…
#>  9 1330… subtype   1330      buitendi… buitendijkse … CH        Kust- en zilt…
#> 10 1330… subtype   1330      binnendi… zilte graslan… CH        Kust- en zilt…
#> # … with 101 more rows, and 18 more variables: hydr_class <fct>,
#> #   hydr_class_name <fct>, hydr_class_shortname <fct>, groundw_dep <fct>,
#> #   groundw_dep_name <fct>, groundw_dep_shortname <fct>, flood_dep <fct>,
#> #   flood_dep_name <fct>, flood_dep_shortname <fct>, tag_1 <chr>,
#> #   tag_1_name <chr>, tag_1_shortname <chr>, tag_2 <chr>, tag_2_name <chr>,
#> #   tag_2_shortname <chr>, tag_3 <chr>, tag_3_name <chr>, tag_3_shortname <chr>

The lang argument is available in the below functions as well.

env_pressures is made available with:

read_env_pressures()
#> # A tibble: 35 x 6
#>    ep_code ep_abbrev   ep_name               ep_class ep_class_name  explanation
#>    <fct>   <fct>       <fct>                 <fct>    <fct>          <chr>      
#>  1 ep_011  011_struct  11 Change of physica… ep_clas… 1 Physical mo… <NA>       
#>  2 ep_012  012_soildy… 12 Soil dynamics inc… ep_clas… 1 Physical mo… <NA>       
#>  3 ep_013  013_soildy… 13 Soil dynamics dec… ep_clas… 1 Physical mo… <NA>       
#>  4 ep_014  014_aqconn  14 Aquatic connectiv… ep_clas… 1 Physical mo… <NA>       
#>  5 ep_015  015_terrco… 15 Terrestrial conne… ep_clas… 1 Physical mo… <NA>       
#>  6 ep_03.1 03.1_eutr_… 3.1 Eutrophication t… ep_clas… 3 Eutrophicat… <NA>       
#>  7 ep_03.2 03.2_eutr_… 3.2 Eutrophication t… ep_clas… 3 Eutrophicat… <NA>       
#>  8 ep_03.3 03.3_eutr_… 3.3 Eutrophication t… ep_clas… 3 Eutrophicat… <NA>       
#>  9 ep_03.4 03.4_eutr_… 3.4 Eutrophication t… ep_clas… 3 Eutrophicat… <NA>       
#> 10 ep_04.1 04.1_acidi… 4.1 Acidification th… ep_clas… 4 Acidificati… <NA>       
#> # … with 25 more rows

When actually using these reading functions, you will – of course – assign its result to an object. E.g. with the schemes reference list:

schemes <- read_schemes()
schemes
#> # A tibble: 62 x 25
#>    scheme scheme_name scheme_shortname programme programme_name attribute_1
#>    <fct>  <fct>       <fct>            <fct>     <fct>          <fct>      
#>  1 ATM_0… Atmospheri… ATM: 03.1_eutr_… MNE       Monitoring pr… ATM        
#>  2 ATM_0… Atmospheri… ATM: 04.1_acidi… MNE       Monitoring pr… ATM        
#>  3 ATM_0… Atmospheri… ATM: 08.1_poll_… MNE       Monitoring pr… ATM        
#>  4 ATM_1… Atmospheri… ATM: 101_clim_d… MNE       Monitoring pr… ATM        
#>  5 ATM_1… Atmospheri… ATM: 102_clim_w… MNE       Monitoring pr… ATM        
#>  6 GW_03… Groundwate… GW: 03.3_eutr_gw MNE       Monitoring pr… GW         
#>  7 GW_04… Groundwate… GW: 04.2_acidif… MNE       Monitoring pr… GW         
#>  8 GW_05… Groundwate… GW: 05.1_des_gw… MNE       Monitoring pr… GW         
#>  9 GW_05… Groundwate… GW: 05.1_des_gw… MNE       Monitoring pr… GW         
#> 10 GW_05… Groundwate… GW: 05.1_des_gw… MNE       Monitoring pr… GW         
#> # … with 52 more rows, and 19 more variables: attribute_2 <fct>,
#> #   attribute_3 <fct>, attribute_1_name <fct>, attribute_1_shortname <fct>,
#> #   attribute_2_name <fct>, attribute_2_shortname <fct>,
#> #   attribute_3_name <fct>, attribute_3_shortname <fct>,
#> #   spatial_restriction <chr>, notes <chr>, tag_1 <chr>, tag_2 <chr>,
#> #   tag_3 <chr>, tag_1_name <chr>, tag_1_shortname <chr>, tag_2_name <chr>,
#> #   tag_2_shortname <chr>, tag_3_name <chr>, tag_3_shortname <chr>

The read_scheme_types() function provides the extra ability to toggle the presence of most textual information, because these comprise many extra variables (combining all additional information of the concerned themes and the types). This behaviour is controlled by the argument extended, which is FALSE by default.

read_scheme_types()
#> # A tibble: 759 x 5
#>    scheme   type    typegroup     typegroup_name           typegroup_shortname  
#>    <fct>    <fct>   <fct>         <fct>                    <fct>                
#>  1 ATM_03.1 1310_p… ATM_03.1_gro… sensitive non-forest ty… sensitive non-forest 
#>  2 ATM_03.1 1310_zk ATM_03.1_gro… sensitive non-forest ty… sensitive non-forest 
#>  3 ATM_03.1 1310_zv ATM_03.1_gro… sensitive non-forest ty… sensitive non-forest 
#>  4 ATM_03.1 1320    ATM_03.1_gro… sensitive non-forest ty… sensitive non-forest 
#>  5 ATM_03.1 1330_da ATM_03.1_gro… sensitive non-forest ty… sensitive non-forest 
#>  6 ATM_03.1 1330_h… ATM_03.1_gro… sensitive non-forest ty… sensitive non-forest 
#>  7 ATM_03.1 2110    ATM_03.1_gro… sensitive non-forest ty… sensitive non-forest 
#>  8 ATM_03.1 2120    ATM_03.1_gro… sensitive non-forest ty… sensitive non-forest 
#>  9 ATM_03.1 2130_h… ATM_03.1_gro… very sensitive non-fore… very sensitive non-f…
#> 10 ATM_03.1 2130_hd ATM_03.1_gro… very sensitive non-fore… very sensitive non-f…
#> # … with 749 more rows

read_scheme_types(extended = TRUE)
#> # A tibble: 759 x 53
#>    scheme type  typegroup scheme_name scheme_shortname programme programme_name
#>    <fct>  <fct> <fct>     <fct>       <fct>            <fct>     <fct>         
#>  1 ATM_0… 1310… ATM_03.1… Atmospheri… ATM: 03.1_eutr_… MNE       Monitoring pr…
#>  2 ATM_0… 1310… ATM_03.1… Atmospheri… ATM: 03.1_eutr_… MNE       Monitoring pr…
#>  3 ATM_0… 1310… ATM_03.1… Atmospheri… ATM: 03.1_eutr_… MNE       Monitoring pr…
#>  4 ATM_0… 1320  ATM_03.1… Atmospheri… ATM: 03.1_eutr_… MNE       Monitoring pr…
#>  5 ATM_0… 1330… ATM_03.1… Atmospheri… ATM: 03.1_eutr_… MNE       Monitoring pr…
#>  6 ATM_0… 1330… ATM_03.1… Atmospheri… ATM: 03.1_eutr_… MNE       Monitoring pr…
#>  7 ATM_0… 2110  ATM_03.1… Atmospheri… ATM: 03.1_eutr_… MNE       Monitoring pr…
#>  8 ATM_0… 2120  ATM_03.1… Atmospheri… ATM: 03.1_eutr_… MNE       Monitoring pr…
#>  9 ATM_0… 2130… ATM_03.1… Atmospheri… ATM: 03.1_eutr_… MNE       Monitoring pr…
#> 10 ATM_0… 2130… ATM_03.1… Atmospheri… ATM: 03.1_eutr_… MNE       Monitoring pr…
#> # … with 749 more rows, and 46 more variables: attribute_1 <fct>,
#> #   attribute_2 <fct>, attribute_3 <fct>, attribute_1_name <fct>,
#> #   attribute_1_shortname <fct>, attribute_2_name <fct>,
#> #   attribute_2_shortname <fct>, attribute_3_name <fct>,
#> #   attribute_3_shortname <fct>, spatial_restriction <chr>, notes <chr>,
#> #   schemetag_1 <chr>, schemetag_1_name <chr>, schemetag_1_shortname <chr>,
#> #   schemetag_2 <chr>, schemetag_2_name <chr>, schemetag_2_shortname <chr>,
#> #   schemetag_3 <chr>, schemetag_3_name <chr>, schemetag_3_shortname <chr>,
#> #   typelevel <fct>, main_type <fct>, type_name <fct>, type_shortname <fct>,
…
