Demonstrating package & data setup and handling of sf objects: a case with read_soilmap() • n2khab
…
Inspect documentation of read_soilmap():

?read_soilmap

Read the data source and inspect its contents:

sm_simple <- read_soilmap()
sm_simple
#> Simple feature collection with 270550 features and 10 fields
#> geometry type:  MULTIPOLYGON
#> dimension:      XY
#> bbox:           xmin: 22265.45 ymin: 153062.6 xmax: 258872.2 ymax: 244027.9
#> CRS:            31370
#> # A tibble: 270,550 x 11
#>    bsm_poly_id bsm_region bsm_converted bsm_mo_soilunit… bsm_mo_substr
#>  *       <dbl> <fct>      <lgl>         <fct>            <fct>        
#>  1      165740 Kunstmati… FALSE         OB               <NA>         
#>  2      176046 Kunstmati… FALSE         OB               <NA>         
#>  3      185239 Zandleems… FALSE         Ldc              <NA>         
#>  4      162400 Kunstmati… FALSE         OB               <NA>         
#>  5      173971 Kunstmati… FALSE         OB               <NA>         
#>  6      173087 Zandleems… FALSE         Ldp              <NA>         
#>  7      199453 Zandleems… FALSE         Lep              <NA>         
#>  8      176922 Zandleems… FALSE         Ldc              <NA>         
#>  9      227861 Zandleems… FALSE         Abp(c)           <NA>         
#> 10      185390 Zandleems… FALSE         Lca              <NA>         
#> # … with 270,540 more rows, and 6 more variables: bsm_mo_tex <fct>,
#> #   bsm_mo_drain <fct>, bsm_mo_prof <fct>, bsm_mo_parentmat <fct>,
#> #   bsm_mo_profvar <fct>, geom <MULTIPOLYGON [m]>
…
At some time in future, the download will be performed automatically by read_soilmap() (if the soilmap data source is missing).

Explore the soilmap data source

Read the data source – this takes a while (large dataset) – and inspect its contents:

sm <- read_soilmap(use_processed = FALSE)
sm
#> Simple feature collection with 270550 features and 37 fields
#> geometry type:  MULTIPOLYGON
#> dimension:      XY
#> bbox:           xmin: 22265.45 ymin: 153062.6 xmax: 258872.2 ymax: 244027.9
#> CRS:            EPSG:31370
#> # A tibble: 270,550 x 38
#>    bsm_poly_id bsm_map_id bsm_region bsm_ge_region bsm_legend bsm_legend_title
#>  *       <dbl> <fct>      <fct>      <fct>         <fct>      <fct>           
#>  1      165740 61E        Kunstmati… <NA>          Antropoge… bodemserie OB   
#>  2      176046 78W        Kunstmati… <NA>          Antropoge… bodemserie OB   
#>  3      185239 95W        Zandleems… <NA>          Vochtig z… bodemseries Lda…
#>  4      162400 75E        Kunstmati… <NA>          Antropoge… bodemserie OB   
#>  5      173971 63W        Kunstmati… <NA>          Antropoge… bodemserie OB   
#>  6      173087 64W        Zandleems… <NA>          Vochtig z… bodemserie Ldp …
#>  7      199453 98E        Zandleems… <NA>          Nat zandl… bodemserie Lep …
#>  8      176922 81W        Zandleems… <NA>          Vochtig z… bodemseries Lda…
#>  9      227861 88W        Zandleems… <NA>          Droge leem bodemserie Abp …
#> 10      185390 95W        Zandleems… <NA>          Vochtig z… bodemseries Lca…
#> # … with 270,540 more rows, and 32 more variables: bsm_legend_explan <fct>,
#> #   bsm_soiltype_id <dbl>, bsm_soiltype <fct>, bsm_ge_typology <lgl>,
#> #   bsm_soiltype_region <fct>, bsm_soilseries <fct>,
#> #   bsm_soilseries_explan <fct>, bsm_mo_soilunitype <fct>, bsm_mo_substr <fct>,
#> #   bsm_mo_substr_explan <fct>, bsm_mo_tex <fct>, bsm_mo_tex_explan <fct>,
#> #   bsm_mo_drain <fct>, bsm_mo_drain_explan <fct>, bsm_mo_prof <fct>,
#> #   bsm_mo_prof_explan <fct>, bsm_mo_parentmat <fct>,
#> #   bsm_mo_parentmat_explan <fct>, bsm_mo_profvar <fct>,
#> #   bsm_mo_profvar_explan <fct>, bsm_mo_phase <fct>, bsm_ge_substr <fct>,
…
