Using the GRTS data sources • n2khab
…
Alternatively, a dissolved, polygonized variant of the corresponding
GRTSmh_brick level can be returned as an sf
object. In order not to inflate the data source, this was only made
available for levels 4 to 9.

read_GRTSmh_diffres(level = 5, polygon = TRUE)
#> Simple feature collection with 13791 features and 1 field
#> Geometry type: POLYGON
#> Dimension:     XY
#> Bounding box:  xmin: 22029.59 ymin: 153054.1 xmax: 258861.6 ymax: 244030.1
#> Projected CRS: BD72 / Belgian Lambert 72
#> # A tibble: 13,791 × 2
#>    value                                                                    geom
#>  * <int>                                                           <POLYGON [m]>
#>  1 23390 ((178093.6 244030.1, 178093.6 243998.1, 178061.6 243998.1, 177997.6 24…
#>  2 56158 ((178701.6 243646.1, 178701.6 243166.1, 179725.6 243166.1, 179725.6 24…
#>  3 23134 ((177581.6 243870.1, 177581.6 243838.1, 177549.6 243838.1, 177485.6 24…
#>  4 60254 ((179757.6 243454.1, 179757.6 243422.1, 179725.6 243422.1, 179725.6 24…
#>  5  6750 ((176621.6 243390.1, 176621.6 243358.1, 176589.6 243358.1, 176589.6 24…
#>  6 60254 ((180333.6 243230.1, 180333.6 243198.1, 180365.6 243198.1, 180365.6 24…
#>  7 58718 ((176653.6 243166.1, 176653.6 242142.1, 177677.6 242142.1, 177677.6 24…
#>  8 52318 ((177677.6 243166.1, 177677.6 242142.1, 178701.6 242142.1, 178701.6 24…
#>  9  3166 ((178701.6 243166.1, 178701.6 242142.1, 179725.6 242142.1, 179725.6 24…
#> 10 15454 ((179725.6 243166.1, 179725.6 242142.1, 180749.6 242142.1, 180749.6 24…
#> # ℹ 13,781 more rows
…
